Prediction and overfitting
…
---

## Predict outcome on the testing dataset

```r
predict(email_fit, test_data)
```

```
## # A tibble: 785 x 1
##   .pred_class
##   <fct>      
## 1 0          
## 2 0          
## 3 0          
## 4 0          
## 5 0          
## 6 0          
## # … with 779 more rows
```

---

## Predict probabilities on the testing dataset

```r
email_pred <- predict(email_fit, test_data, type = "prob") %>%
  bind_cols(test_data %>% select(spam, time))

email_pred
```

```
## # A tibble: 785 x 4
##   .pred_0  .pred_1 spam  time               
##     <dbl>    <dbl> <fct> <dttm>             
## 1   0.999 0.000844 0     2012-01-01 13:45:21
## 2   0.936 0.0644   0     2012-01-01 13:12:00
## 3   0.998 0.00168  0     2012-01-01 14:38:32
## 4   0.994 0.00551  0     2012-01-01 18:32:53
## 5   0.838 0.162    0     2012-01-01 20:58:14
## 6   0.998 0.00172  0     2012-01-02 02:07:22
## # … with 779 more rows
```

---

## A closer look at predictions

.pull-left-wide[

```r
email_pred %>%
  arrange(desc(.pred_1)) %>%
  print(n = 10)
```

```
## # A tibble: 785 x 4
##    .pred_0 .pred_1 spam  time               
##      <dbl>   <dbl> <fct> <dttm>             
##  1   0.198   0.802 1     2012-02-26 11:39:57
##  2   0.255   0.745 0     2012-01-02 22:30:31
*##  3   0.293   0.707 1     2012-03-31 05:20:24
##  4   0.331   0.669 1     2012-03-13 14:24:16
##  5   0.335   0.665 1     2012-03-17 06:13:27
##  6   0.418   0.582 0     2012-02-04 05:39:37
*##  7   0.419   0.581 1     2012-02-04 10:54:23
##  8   0.438   0.562 1     2012-01-25 19:27:14
##  9   0.445   0.555 0     2012-01-11 21:00:16
## 10   0.448   0.552 0     2012-01-11 13:10:06
## # … with 775 more rows
```
…
